0.25363  1  90  
0.453625  1  90  
0.653603  1  90  
0.853621  1  90  
1.05357  1  90  
1.25363  1  90  
1.45353  1  90  
1.65345  1  90  
1.85353  1  90  
2.05353  1  90  
2.25357  1  90  
2.45361  1  90  
2.65352  1  90  
2.85352  1  90  
